<svg viewBox="0 0 34 34" fill="none" xmlns="http://www.w3.org/2000/svg">
<path d="M32.0078 19.4072V3.05469C32.0078 2.5045 31.5619 2.05859 31.0117 2.05859H25.9648V0.996094C25.9648 0.445908 25.5189 0 24.9688 0C24.4186 0 23.9727 0.445908 23.9727 0.996094V2.05859H19.9883V0.996094C19.9883 0.445908 19.5424 0 18.9922 0C18.442 0 17.9961 0.445908 17.9961 0.996094V2.05859H14.0117V0.996094C14.0117 0.445908 13.5658 0 13.0156 0C12.4654 0 12.0195 0.445908 12.0195 0.996094V2.05859H8.03516V0.996094C8.03516 0.445908 7.58925 0 7.03906 0C6.48888 0 6.04297 0.445908 6.04297 0.996094V2.05859H0.996094C0.445908 2.05859 0 2.5045 0 3.05469V29.0195C0 29.5697 0.445908 30.0156 0.996094 30.0156H17.5847C19.195 32.4164 21.9335 34 25.0352 34C29.9783 34 34 29.9783 34 25.0352C34 22.9055 33.2529 20.947 32.0078 19.4072ZM6.04297 4.05078V5.04688C6.04297 5.59706 6.48888 6.04297 7.03906 6.04297C7.58925 6.04297 8.03516 5.59706 8.03516 5.04688V4.05078H12.0195V5.04688C12.0195 5.59706 12.4654 6.04297 13.0156 6.04297C13.5658 6.04297 14.0117 5.59706 14.0117 5.04688V4.05078H17.9961V5.04688C17.9961 5.59706 18.442 6.04297 18.9922 6.04297C19.5424 6.04297 19.9883 5.59706 19.9883 5.04688V4.05078H23.9727V5.04688C23.9727 5.59706 24.4186 6.04297 24.9688 6.04297C25.5189 6.04297 25.9648 5.59706 25.9648 5.04688V4.05078H30.0156V8.03516H1.99219V4.05078H6.04297ZM1.99219 28.0234V10.0273H30.0156V17.5847C28.5902 16.6288 26.8766 16.0703 25.0352 16.0703C21.8876 16.0703 19.1141 17.7012 17.5141 20.1618C17.3795 20.0939 17.2278 20.0547 17.0664 20.0547H15.0742C14.524 20.0547 14.0781 20.5006 14.0781 21.0508C14.0781 21.601 14.524 22.0469 15.0742 22.0469H16.5831C16.3582 22.6814 16.2026 23.3485 16.1261 24.0391H15.0742C14.524 24.0391 14.0781 24.485 14.0781 25.0352C14.0781 25.5853 14.524 26.0312 15.0742 26.0312H16.1261C16.2026 26.7218 16.358 27.3889 16.5831 28.0234H1.99219ZM25.0352 32.0078C21.1903 32.0078 18.0625 28.88 18.0625 25.0352C18.0625 21.1903 21.1903 18.0625 25.0352 18.0625C28.88 18.0625 32.0078 21.1903 32.0078 25.0352C32.0078 28.88 28.88 32.0078 25.0352 32.0078Z"/>
<path d="M29.0195 24.0391H26.0312V21.0508C26.0312 20.5006 25.5853 20.0547 25.0352 20.0547C24.485 20.0547 24.0391 20.5006 24.0391 21.0508V25.0352C24.0391 25.5853 24.485 26.0312 25.0352 26.0312H29.0195C29.5697 26.0312 30.0156 25.5853 30.0156 25.0352C30.0156 24.485 29.5697 24.0391 29.0195 24.0391Z"/>
<path d="M9.03125 12.0859H7.03906C6.48888 12.0859 6.04297 12.5318 6.04297 13.082C6.04297 13.6322 6.48888 14.0781 7.03906 14.0781H9.03125C9.58144 14.0781 10.0273 13.6322 10.0273 13.082C10.0273 12.5318 9.58144 12.0859 9.03125 12.0859Z"/>
<path d="M9.03125 16.0703H7.03906C6.48888 16.0703 6.04297 16.5162 6.04297 17.0664C6.04297 17.6166 6.48888 18.0625 7.03906 18.0625H9.03125C9.58144 18.0625 10.0273 17.6166 10.0273 17.0664C10.0273 16.5162 9.58144 16.0703 9.03125 16.0703Z"/>
<path d="M9.03125 20.0547H7.03906C6.48888 20.0547 6.04297 20.5006 6.04297 21.0508C6.04297 21.601 6.48888 22.0469 7.03906 22.0469H9.03125C9.58144 22.0469 10.0273 21.601 10.0273 21.0508C10.0273 20.5006 9.58144 20.0547 9.03125 20.0547Z"/>
<path d="M15.0742 14.0781H17.0664C17.6166 14.0781 18.0625 13.6322 18.0625 13.082C18.0625 12.5318 17.6166 12.0859 17.0664 12.0859H15.0742C14.524 12.0859 14.0781 12.5318 14.0781 13.082C14.0781 13.6322 14.524 14.0781 15.0742 14.0781Z"/>
<path d="M15.0742 18.0625H17.0664C17.6166 18.0625 18.0625 17.6166 18.0625 17.0664C18.0625 16.5162 17.6166 16.0703 17.0664 16.0703H15.0742C14.524 16.0703 14.0781 16.5162 14.0781 17.0664C14.0781 17.6166 14.524 18.0625 15.0742 18.0625Z"/>
<path d="M9.03125 24.0391H7.03906C6.48888 24.0391 6.04297 24.485 6.04297 25.0352C6.04297 25.5853 6.48888 26.0312 7.03906 26.0312H9.03125C9.58144 26.0312 10.0273 25.5853 10.0273 25.0352C10.0273 24.485 9.58144 24.0391 9.03125 24.0391Z"/>
<path d="M23.043 14.0781H25.0352C25.5853 14.0781 26.0312 13.6322 26.0312 13.082C26.0312 12.5318 25.5853 12.0859 25.0352 12.0859H23.043C22.4928 12.0859 22.0469 12.5318 22.0469 13.082C22.0469 13.6322 22.4928 14.0781 23.043 14.0781Z"/>
</svg>
