<svg viewBox="0 0 32 32" fill="none" xmlns="http://www.w3.org/2000/svg">
<path d="M31.1938 11.6378L29.5834 10.2462C29.3837 10.0734 29.0816 10.0955 28.9089 10.2954C28.7363 10.4952 28.7582 10.7972 28.9581 10.9699L30.5683 12.3615C31.1423 12.8576 31.2057 13.7281 30.7097 14.3021L20.2505 26.4044C20.0778 26.6042 20.0998 26.9062 20.2996 27.079C20.3901 27.1571 20.5014 27.1954 20.6121 27.1954C20.7463 27.1954 20.8796 27.1393 20.9742 27.0299L31.4333 14.9275C32.2743 13.9545 32.1668 12.4787 31.1938 11.6378Z" fill="#A6A6A6"/>
<path d="M28.3588 9.18769L20.9098 2.75013C20.4384 2.34276 19.8366 2.14357 19.2153 2.18857C18.5939 2.23376 18.0274 2.51832 17.6201 2.98963L16.9103 3.81088C16.7376 4.01075 16.7596 4.31275 16.9594 4.48544C17.1594 4.65825 17.4613 4.63613 17.634 4.43632L18.3437 3.61507C18.5841 3.33707 18.9182 3.16919 19.2848 3.1425C19.6514 3.11557 20.0063 3.23344 20.2844 3.47375L27.7334 9.91131C27.8238 9.9895 27.9351 10.0277 28.0459 10.0277C28.1801 10.0277 28.3134 9.97162 28.4079 9.86225C28.5806 9.66237 28.5586 9.36037 28.3588 9.18769Z" fill="#A6A6A6"/>
<path d="M23.8187 7.497L10.932 3.17462C9.71251 2.76562 8.38795 3.42494 7.97901 4.64419L7.80901 5.151C7.72501 5.40138 7.85995 5.6725 8.11039 5.7565C8.36083 5.8405 8.63183 5.70562 8.71589 5.45512L8.88589 4.94831C9.12714 4.229 9.90845 3.84006 10.6278 4.08138L23.5146 8.40369C24.234 8.645 24.6228 9.42637 24.3816 10.1456L18.3858 28.0219C18.3018 28.2723 18.4367 28.5433 18.6871 28.6274C18.7376 28.6442 18.7888 28.6523 18.8393 28.6523C19.0391 28.6523 19.2255 28.526 19.2926 28.3261L25.2885 10.4499C25.6973 9.23069 25.0381 7.90594 23.8187 7.497Z" fill="#A6A6A6"/>
<path d="M15.9247 6.29806H2.33238C1.04631 6.29806 0 7.34431 0 8.63038V27.4853C0 28.7714 1.04631 29.8177 2.33238 29.8177H15.9248C17.2108 29.8177 18.2571 28.7714 18.2571 27.4853V8.63038C18.2571 7.34431 17.2108 6.29806 15.9247 6.29806ZM17.3006 27.4853C17.3006 28.244 16.6833 28.8612 15.9247 28.8612H2.33238C1.57369 28.8612 0.9565 28.244 0.9565 27.4853V8.63038C0.9565 7.87169 1.57375 7.2545 2.33238 7.2545H15.9248C16.6834 7.2545 17.3006 7.87175 17.3006 8.63038V27.4853H17.3006Z" fill="#A6A6A6"/>
<path d="M16.1736 19.4975H2.08347C1.81935 19.4975 1.60522 19.7116 1.60522 19.9757C1.60522 20.2399 1.81935 20.454 2.08347 20.454H16.1736C16.4378 20.454 16.6519 20.2399 16.6519 19.9757C16.6518 19.7116 16.4377 19.4975 16.1736 19.4975Z" fill="#A6A6A6"/>
<path d="M13.9441 22.2324H8.02201C7.75789 22.2324 7.54376 22.4465 7.54376 22.7106C7.54376 22.9748 7.75789 23.1889 8.02201 23.1889H13.9441C14.2083 23.1889 14.4224 22.9748 14.4224 22.7106C14.4224 22.4465 14.2083 22.2324 13.9441 22.2324Z" fill="#A6A6A6"/>
<path d="M6.42778 22.2324H4.31284C4.04872 22.2324 3.83459 22.4465 3.83459 22.7106C3.83459 22.9748 4.04872 23.1889 4.31284 23.1889H6.42778C6.6919 23.1889 6.90603 22.9748 6.90603 22.7106C6.90603 22.4465 6.6919 22.2324 6.42778 22.2324Z" fill="#A6A6A6"/>
<path d="M13.9441 24.0606H4.31284C4.04872 24.0606 3.83459 24.2747 3.83459 24.5388C3.83459 24.8029 4.04872 25.0171 4.31284 25.0171H13.9441C14.2082 25.0171 14.4223 24.8029 14.4223 24.5388C14.4223 24.2746 14.2082 24.0606 13.9441 24.0606Z" fill="#A6A6A6"/>
<path d="M13.9441 25.8887H4.31284C4.04872 25.8887 3.83459 26.1028 3.83459 26.3669C3.83459 26.6311 4.04872 26.8452 4.31284 26.8452H13.9441C14.2082 26.8452 14.4223 26.6311 14.4223 26.3669C14.4223 26.1028 14.2082 25.8887 13.9441 25.8887Z" fill="#A6A6A6"/>
<path d="M14.3847 11.847C14.3285 11.6739 14.1789 11.5477 13.9987 11.5216L10.9298 11.0756L9.55736 8.29469C9.47673 8.13144 9.31054 8.02806 9.12848 8.02806C8.94648 8.02806 8.78023 8.13144 8.69961 8.29469L7.32711 11.0756L4.25817 11.5216C4.07804 11.5477 3.92836 11.6739 3.87217 11.847C3.81592 12.0201 3.86286 12.2101 3.99317 12.3372L6.21392 14.5018L5.68967 17.5584C5.65892 17.7378 5.73267 17.9191 5.87992 18.0261C5.96323 18.0866 6.06192 18.1174 6.16105 18.1174C6.23711 18.1174 6.31355 18.0992 6.38355 18.0626L9.12848 16.6194L11.8734 18.0626C12.0345 18.1472 12.2298 18.1331 12.377 18.0261C12.5244 17.9191 12.598 17.7378 12.5673 17.5584L12.043 14.5018L14.2637 12.3372C14.394 12.2101 14.441 12.0201 14.3847 11.847ZM11.1954 13.9924C11.0827 14.1023 11.0312 14.2606 11.0579 14.4157L11.4608 16.7651L9.35098 15.6558C9.21161 15.5826 9.04517 15.5826 8.90592 15.6558L6.79611 16.7651L7.19904 14.4157C7.22561 14.2606 7.17423 14.1023 7.06148 13.9924L5.35467 12.3287L7.71348 11.9859C7.86923 11.9632 8.00386 11.8654 8.07354 11.7242L9.12842 9.58675L10.1833 11.7242C10.2529 11.8654 10.3876 11.9632 10.5434 11.9859L12.9022 12.3287L11.1954 13.9924Z" fill="#FCB149"/>
</svg>
