<svg viewBox="0 0 32 32" fill="none" xmlns="http://www.w3.org/2000/svg">
<g clip-path="url(#clip0)">
<path d="M20.4266 14.2523C20.4863 14.2725 20.5477 14.2821 20.6074 14.2821C20.8422 14.2821 21.0613 14.1346 21.1407 13.8997C21.317 13.3827 21.8807 13.1051 22.3977 13.2803C23.5026 13.6542 24.7083 13.0612 25.0828 11.9557C25.183 11.6618 25.0253 11.3413 24.7308 11.2411C24.4351 11.1414 24.1164 11.2991 24.0162 11.5936C23.8404 12.1111 23.2767 12.3888 22.7592 12.2131C21.656 11.8408 20.4491 12.4327 20.0741 13.5376C19.9744 13.8316 20.1321 14.152 20.4266 14.2523Z" fill="#FCB149"/>
<path d="M21.7591 10.3282C21.8188 10.3485 21.8801 10.3581 21.9398 10.3581C22.1747 10.3581 22.3937 10.2105 22.4731 9.97567C22.5582 9.72507 22.7356 9.52234 22.9732 9.4052C23.2109 9.28807 23.4795 9.27117 23.7301 9.35621C24.835 9.73014 26.0402 9.13714 26.4152 8.03111C26.5155 7.73714 26.3572 7.41671 26.0632 7.31647C25.7687 7.2151 25.4488 7.37447 25.3492 7.669C25.1735 8.1871 24.6109 8.46474 24.0922 8.28903C23.5561 8.10714 22.9822 8.1443 22.4754 8.39491C21.9686 8.64495 21.589 9.07801 21.4071 9.61357C21.3063 9.9081 21.4645 10.228 21.7591 10.3282Z" fill="#FCB149"/>
<path d="M23.0904 6.40417C23.1506 6.42445 23.2114 6.43402 23.2717 6.43402C23.5065 6.43402 23.7256 6.28647 23.805 6.05164C23.9345 5.66982 24.3518 5.46427 24.7331 5.5938C25.2033 5.75317 25.7073 5.72051 26.1528 5.50144C26.5977 5.28181 26.9305 4.90225 27.0904 4.43201C27.1907 4.13805 27.033 3.81762 26.7385 3.71737C26.4428 3.61657 26.1241 3.77538 26.0238 4.06991C25.9607 4.25518 25.8295 4.40498 25.6544 4.49115C25.4793 4.57731 25.281 4.59026 25.0952 4.52662C24.1254 4.19943 23.0673 4.71979 22.7384 5.68897C22.6387 5.98406 22.7958 6.30393 23.0904 6.40417Z" fill="#FCB149"/>
<path d="M27.1698 14.2106C27.0718 14.1436 26.9615 14.1053 26.8488 14.0906C27.9678 10.4544 28.5817 6.89186 28.6695 3.49886C28.6971 2.43169 28.1756 1.00692 27.1242 0.347464C26.6196 0.0304093 25.7929 -0.230893 24.7196 0.321559C23.0374 1.18938 21.8345 3.74215 20.8682 5.79427C20.8124 5.91253 20.7578 6.02798 20.7037 6.1423C20.4903 5.16073 19.8415 4.32107 18.9191 3.88293C18.7017 2.83772 17.8728 2.0189 16.8309 1.80659C16.8197 1.74802 16.8056 1.69058 16.7881 1.63258C16.5736 0.899353 15.9265 0.347464 15.1781 0.258486C14.7563 0.208365 14.3384 0.295654 13.9814 0.504584C13.6773 0.335075 13.336 0.24497 12.9857 0.24497C12.0064 0.24497 11.1836 0.928074 10.9691 1.84207C9.89852 2.13378 9.11348 3.11648 9.10503 4.25856C7.88356 4.57392 6.99378 5.6777 6.99378 6.99041C6.99378 7.33844 7.0591 7.68309 7.18469 8.00802C6.86763 8.39942 6.69193 8.88936 6.69193 9.40352C6.69193 9.71212 6.75556 10.0095 6.87552 10.2843C6.31293 9.67045 5.52113 9.16868 4.63192 9.20134C4.32106 9.21148 4.07665 9.47109 4.08622 9.78195C4.0958 10.0866 4.34584 10.3276 4.64881 10.3276C4.66796 10.3282 4.68542 10.3265 4.70344 10.3265C5.23111 10.3265 5.72162 10.6757 6.07866 11.0811C5.1855 11.3385 4.10875 11.7575 3.60642 12.7047C3.304 13.2763 3.26853 13.9774 3.47013 14.7805C3.37271 14.9432 3.31921 15.1325 3.32935 15.3341L4.28783 28.955C4.37512 30.6631 5.783 32.0006 7.49273 32.0006H23.301C25.0107 32.0006 26.4186 30.6631 26.5053 28.9652L27.488 14.8706C27.488 14.8672 27.4886 14.8638 27.4886 14.8605C27.5043 14.6008 27.3844 14.3581 27.1698 14.2106ZM21.1632 7.75292C21.3863 7.33675 21.6295 6.8209 21.8869 6.27408C22.7333 4.4765 23.8934 2.01496 25.2354 1.32228C25.7253 1.06999 26.1471 1.06492 26.5256 1.30088C27.1783 1.71086 27.5623 2.74537 27.5438 3.46958C27.4576 6.79894 26.8494 10.3029 25.7355 13.8845C25.6989 14.0022 25.6178 14.2399 25.5023 14.5659L24.5427 14.9922C24.5219 15.0018 24.5016 15.0119 24.4819 15.0243C24.2048 15.1905 23.894 15.2727 23.5831 15.2761C23.2723 15.2727 22.962 15.1905 22.6849 15.0243L22.2834 14.7833C21.8216 14.5062 21.304 14.3677 20.7865 14.3677C20.7803 14.3677 20.7741 14.3688 20.7674 14.3688C20.2436 14.3654 19.7188 14.5023 19.2513 14.7833L18.8504 15.0243C18.6268 15.1584 18.3796 15.2237 18.1295 15.2519C18.1436 15.2029 18.16 15.155 18.1746 15.1066C18.3289 14.5823 18.4945 14.0653 18.6679 13.5523C18.7338 13.3574 18.8025 13.1637 18.8712 12.9705C19.0159 12.5634 19.1674 12.1613 19.324 11.762C19.3938 11.5835 19.462 11.4033 19.534 11.2264C20.0251 10.0286 20.5669 8.86683 21.1632 7.75292ZM13.9842 9.08871C14.0501 9.00424 14.1143 8.92202 14.1751 8.84205C14.1751 8.84093 14.1757 8.84036 14.1762 8.8398C14.2207 8.78067 14.2596 8.71929 14.2922 8.6579C14.4308 8.39716 14.4634 8.10432 14.3992 7.81824L16.7498 7.30408C16.7656 7.37617 16.7825 7.44769 16.8095 7.51414C16.9148 7.77206 17.1029 7.98662 17.3648 8.13642C17.4504 8.18373 17.5399 8.23103 17.6323 8.28003C17.7083 8.32001 17.7843 8.36168 17.8609 8.40336C17.8975 8.42307 17.9347 8.44278 17.9713 8.46305C18.0383 8.50078 18.1031 8.54246 18.1684 8.58357C18.2242 8.61792 18.2793 8.6534 18.3334 8.69113C18.3959 8.73449 18.4556 8.78236 18.5153 8.83079C18.5677 8.87359 18.6178 8.92033 18.6674 8.9682C18.7209 9.02057 18.7738 9.07407 18.8228 9.13264C18.9095 9.23626 18.9929 9.34382 19.061 9.47278C18.8222 9.99989 18.5975 10.5377 18.3802 11.08C18.3464 11.1639 18.3103 11.2456 18.2771 11.3295C17.6599 11.4861 17.0635 11.7789 16.3269 12.3032C15.3988 12.9626 14.7078 13.1378 13.5691 12.9728L13.2273 11.4078C12.9953 10.3496 13.4982 9.70874 13.9842 9.08871ZM16.7769 5.66869C16.7915 5.66587 16.8061 5.66418 16.8208 5.66418C16.9272 5.66418 17.0269 5.74021 17.05 5.84721C17.068 5.9283 17.0376 5.99194 17.0173 6.02291C16.9976 6.05332 16.9531 6.10682 16.8726 6.12428L13.7617 6.80513C13.6378 6.83216 13.5117 6.74994 13.4847 6.62717C13.4576 6.50384 13.5393 6.37714 13.6626 6.3501L15.3155 5.98856L16.7769 5.66869ZM14.9567 14.379C14.9139 14.3818 14.8706 14.3829 14.8278 14.3874C14.5209 14.4184 14.2179 14.4961 13.9301 14.6256L13.8226 14.1329C13.9847 14.1464 14.1464 14.1599 14.2979 14.1599C15.28 14.1599 16.0707 13.8676 16.9796 13.2211C17.2657 13.0173 17.5191 12.863 17.7601 12.7351C17.7083 12.8821 17.6571 13.0285 17.6069 13.1761C17.5709 13.2819 17.532 13.3861 17.4971 13.4926C17.3316 13.9938 17.1739 14.4989 17.0269 15.0086L16.6524 14.7844C16.1906 14.5074 15.6731 14.3688 15.1555 14.3688C15.1488 14.3688 15.1415 14.37 15.1347 14.37C15.075 14.3688 15.0159 14.3756 14.9567 14.379ZM8.22089 8.55541L8.58975 8.25131L8.35041 7.83852C8.20061 7.57946 8.12121 7.28663 8.12121 6.99041C8.12121 6.0781 8.83585 5.33418 9.74815 5.29588L10.4318 5.26716L10.2724 4.60152C10.2454 4.49001 10.2319 4.3802 10.2319 4.27601C10.2319 3.55067 10.7984 2.93965 11.5215 2.88446L12.0419 2.84504V2.28471C12.0582 1.77843 12.4755 1.37127 12.9863 1.37127C13.2802 1.37127 13.4909 1.50531 13.6153 1.61794L14.0101 1.97441L14.3885 1.60048C14.562 1.42928 14.8002 1.34931 15.0457 1.37747C15.3476 1.41295 15.6201 1.64835 15.708 1.95076C15.7378 2.05213 15.7463 2.15011 15.7345 2.24979L15.6686 2.87883H16.3027C17.1119 2.87883 17.7888 3.51125 17.8446 4.31881L17.8699 4.68881L18.2197 4.81157C19.0999 5.12074 19.6788 5.95364 19.6591 6.88566C19.6506 7.28381 19.5222 7.66732 19.2896 8.00352C18.9129 7.68365 18.5069 7.46796 18.1656 7.28832C18.0772 7.24157 17.9916 7.19652 17.9054 7.14865C17.8812 7.13514 17.8519 7.11149 17.8418 7.05235C17.8283 6.97126 17.8587 6.87384 17.9201 6.80232C18.1656 6.51736 18.2641 6.12879 18.1847 5.76217L18.1166 5.45188C18.0485 5.13876 17.8615 4.87127 17.5912 4.69782C17.3214 4.52493 17.0004 4.46692 16.6879 4.53563L16.537 4.56885C16.5353 4.56942 16.5336 4.56885 16.5319 4.56942L14.879 4.93096L13.2662 5.28293C12.9536 5.35107 12.6861 5.53748 12.5127 5.80835C12.3392 6.0781 12.2818 6.39966 12.3499 6.71221L12.3837 6.86539C12.3837 6.86595 12.3837 6.86651 12.3837 6.86708C12.3837 6.86764 12.3843 6.8682 12.3843 6.86933L12.4175 7.02194C12.4992 7.397 12.7599 7.71293 13.1141 7.86498C13.202 7.90271 13.2752 7.97423 13.3005 8.04688C13.3152 8.08855 13.3067 8.10995 13.274 8.16402C13.274 8.16402 13.274 8.16402 13.274 8.16458C13.2183 8.23948 13.158 8.31551 13.0967 8.39378C13.0347 8.47262 12.9705 8.55541 12.9052 8.64101C12.8832 8.66973 12.8624 8.69958 12.8404 8.72886C12.7937 8.7925 12.7469 8.85726 12.7008 8.92484C12.6754 8.96144 12.6512 8.99917 12.6264 9.03747C12.5836 9.10336 12.5425 9.1715 12.502 9.24133C12.4783 9.28187 12.4552 9.32186 12.4327 9.36409C12.3905 9.44294 12.3522 9.52572 12.3144 9.61019C12.2981 9.64623 12.2807 9.68059 12.266 9.71832C12.2165 9.84108 12.1725 9.96948 12.1376 10.1046C12.132 10.126 12.1297 10.1491 12.1247 10.1711C12.0976 10.286 12.0757 10.4048 12.0616 10.5287C12.056 10.5783 12.0548 10.6301 12.0514 10.6813C12.0469 10.7478 12.0385 10.8108 12.0385 10.8801C12.0362 10.8773 12.034 10.8745 12.0317 10.8717C12.0239 10.8615 12.016 10.8525 12.0086 10.8424C11.9107 10.7134 11.8127 10.5946 11.7141 10.482C11.6831 10.4465 11.6516 10.4121 11.6201 10.3783C11.5373 10.2888 11.4545 10.2049 11.3712 10.126C11.3441 10.1007 11.3171 10.0731 11.2895 10.0483C11.1842 9.95428 11.0783 9.86812 10.9719 9.79153C10.942 9.77013 10.9116 9.75211 10.8818 9.73183C10.8018 9.67833 10.7218 9.62878 10.6408 9.58485C10.6013 9.56345 10.5625 9.54261 10.5225 9.52347C10.4386 9.48236 10.3541 9.44744 10.2691 9.41703C10.2409 9.40689 10.2128 9.39338 10.1846 9.38437C10.0922 9.35508 9.99932 9.33143 9.90584 9.31397C9.89514 9.31172 9.88444 9.31285 9.87374 9.31116C9.85459 9.30778 9.83601 9.30046 9.81686 9.29764C9.75153 9.28807 9.68959 9.29201 9.62539 9.28751C9.58033 9.28469 9.53585 9.27512 9.49079 9.27512C9.47728 9.27512 9.4632 9.2785 9.44912 9.2785C9.36183 9.27962 9.27736 9.28976 9.19232 9.30046C9.15009 9.30609 9.10785 9.30947 9.06561 9.31735C8.95467 9.33763 8.84711 9.36578 8.74068 9.39957C8.72434 9.40464 8.70858 9.40858 8.69224 9.41422C8.41179 9.50939 8.14599 9.64398 7.89707 9.80673C7.84583 9.68002 7.8188 9.54374 7.8188 9.40352C7.81936 9.07407 7.96578 8.7649 8.22089 8.55541ZM4.60263 13.2313C4.84085 12.7824 5.4192 12.44 6.4233 12.1528C6.89297 12.0188 7.32885 11.7682 7.68251 11.4303C7.84301 11.2766 7.99337 11.1465 8.13867 11.0282C8.59257 10.6593 8.98396 10.4589 9.33818 10.4132C9.34606 10.4121 9.35395 10.411 9.36183 10.4104C9.4739 10.398 9.58259 10.4014 9.6879 10.42C9.71549 10.4251 9.74365 10.4346 9.77181 10.442C9.82418 10.4549 9.87599 10.4679 9.92836 10.4887C9.96215 10.5017 9.99594 10.5214 10.0303 10.5371C10.0793 10.5608 10.1277 10.5822 10.1767 10.612C10.215 10.6351 10.2533 10.665 10.2916 10.6914C10.3372 10.7235 10.3828 10.7528 10.429 10.79C10.4718 10.8243 10.5146 10.866 10.5574 10.9049C10.6002 10.9437 10.643 10.9792 10.6858 11.0226C10.7331 11.0704 10.781 11.1262 10.8288 11.1797C10.8677 11.2231 10.9066 11.263 10.946 11.3098C10.9995 11.374 11.0535 11.4472 11.1076 11.5182C11.142 11.5632 11.1757 11.6038 11.2101 11.6516C11.2715 11.7372 11.3334 11.8324 11.3954 11.927C11.4224 11.9687 11.45 12.0058 11.477 12.0486C11.5666 12.19 11.6567 12.3404 11.7473 12.5003C12.1618 13.2318 12.2992 14.3125 12.119 15.2535C12.0892 15.2507 12.0599 15.2462 12.03 15.2417C11.8155 15.2051 11.6088 15.1364 11.4207 15.0238L11.0192 14.7827C10.5574 14.5057 10.0399 14.3671 9.52233 14.3671C9.51614 14.3671 9.50994 14.3683 9.50318 14.3683C8.97945 14.3649 8.45459 14.5017 7.98718 14.7827L7.79176 14.8999C7.45106 15.1043 7.06924 15.2074 6.68742 15.2107C6.30504 15.2074 5.92379 15.1049 5.58308 14.8999L4.82564 14.4449C4.82564 14.4449 4.82508 14.4449 4.82508 14.4443C4.7254 14.3852 4.61784 14.3446 4.50746 14.3243C4.41905 13.8789 4.45058 13.5185 4.60263 13.2313ZM25.3835 28.897C25.3266 30.0053 24.4126 30.8737 23.3032 30.8737H7.49442C6.38445 30.8737 5.47101 30.0053 5.41357 28.8863L4.47649 15.5723L4.96643 15.8663C5.49748 16.185 6.09386 16.3416 6.68855 16.3382C7.2838 16.3416 7.87962 16.185 8.41067 15.8663L8.60608 15.7491C8.88315 15.5824 9.19345 15.5002 9.50431 15.4968C9.81517 15.5002 10.1255 15.5824 10.4031 15.7491L10.8046 15.9901C11.3126 16.2948 11.8881 16.4255 12.4569 16.3945C12.5076 16.3922 12.5583 16.3922 12.6095 16.3877C12.6157 16.3872 12.6214 16.3838 12.6281 16.3832C13.0127 16.3399 13.3901 16.2188 13.7381 16.0206C13.7708 16.0087 13.8057 16.0082 13.8361 15.9901L14.2376 15.7491C14.5147 15.5824 14.825 15.5002 15.1358 15.4968C15.4467 15.5002 15.757 15.5824 16.0346 15.7491L16.4362 15.9901C16.8625 16.2453 17.3366 16.3776 17.8136 16.3973C17.8232 16.3979 17.8333 16.399 17.8429 16.399C18.0073 16.4041 18.1718 16.399 18.3351 16.3759C18.4286 16.3641 18.5192 16.3404 18.611 16.3196C18.6555 16.3089 18.7 16.2993 18.7439 16.2864C18.994 16.2171 19.239 16.1264 19.467 15.9896L19.8686 15.7486C20.1456 15.5819 20.4559 15.4996 20.7668 15.4963C21.0777 15.4996 21.3879 15.5819 21.6656 15.7486L22.0671 15.9896C22.5323 16.2683 23.0543 16.4052 23.5758 16.4029C23.5842 16.4029 23.5933 16.4046 23.6017 16.4046C24.1074 16.4046 24.6137 16.2728 25.0676 16.0082L26.1725 15.5171C26.1961 15.5064 26.213 15.4861 26.235 15.4726L26.3212 15.4343L25.3835 28.897Z" fill="#999999"/>
<path d="M6.70768 24.2178H10.6497C10.9606 24.2178 11.2129 23.9661 11.2129 23.6546C11.2129 23.3432 10.9606 23.0915 10.6497 23.0915H6.70768C6.39682 23.0915 6.14453 23.3432 6.14453 23.6546C6.14453 23.9661 6.39682 24.2178 6.70768 24.2178Z" fill="#FCB149"/>
<path d="M6.70768 26.4704H11.7761C12.0869 26.4704 12.3392 26.2187 12.3392 25.9073C12.3392 25.5958 12.0869 25.3441 11.7761 25.3441H6.70768C6.39682 25.3441 6.14453 25.5958 6.14453 25.9073C6.14453 26.2187 6.39682 26.4704 6.70768 26.4704Z" fill="#FCB149"/>
<path d="M12.9024 27.5967H6.70768C6.39682 27.5967 6.14453 27.8484 6.14453 28.1599C6.14453 28.4713 6.39682 28.723 6.70768 28.723H12.9024C13.2132 28.723 13.4655 28.4713 13.4655 28.1599C13.4655 27.8484 13.2132 27.5967 12.9024 27.5967Z" fill="#FCB149"/>
<path d="M16.2813 27.5967H15.155C14.8442 27.5967 14.5919 27.8484 14.5919 28.1599C14.5919 28.4713 14.8442 28.723 15.155 28.723H16.2813C16.5922 28.723 16.8445 28.4713 16.8445 28.1599C16.8445 27.8484 16.5922 27.5967 16.2813 27.5967Z" fill="#FCB149"/>
</g>
<defs>
<clipPath id="clip0">
<rect width="32" height="32" fill="white"/>
</clipPath>
</defs>
</svg>
