<svg xmlns="http://www.w3.org/2000/svg" viewBox="0 0 20.01 18">
  <title>heart-stroke-2</title>
  <path d="M17.52,2.49h0a5.11,5.11,0,0,0-6.87-.31,1,1,0,0,1-1.28,0,5.11,5.11,0,0,0-6.87.31h0a5.1,5.1,0,0,0,0,7.21h0l7.15,7.15a.51.51,0,0,0,.72,0L17.52,9.7h0a5.1,5.1,0,0,0,0-7.21Z" stroke-linejoin="round" stroke-width="2"/>
</svg>
